{
  "instance": "qurlsvc-1",
  "home_dir": "/home/ysriram/projects/qurl-svc",
  "log_dir": "/home/ysriram/projects/qurl-svc/log",
  "log_file": "qurl-svc.log",
  "log_level": "info",
  "pid_file": "/home/ysriram/projects/qurl-svc/log/qurl-svc.pid",
  "port": 3000,
  "daemonize": false,

  "maint_timer_milli": 3000,
  "max_threads": 5,

  "redis": {
    "host": "192.168.1.45",
    "port": 6379,
    "connect_timeout_sec": 3
  }
}